…
``` r
# View the first few rows
combined_df
```

    ## # A tibble: 1,036 × 15
    ##    dumpster month  year date                weight_tons volume_cubic_yards
    ##       <dbl> <chr> <dbl> <dttm>                    <dbl>              <dbl>
    ##  1        1 May    2014 2014-05-16 00:00:00        4.31                 18
    ##  2        2 May    2014 2014-05-16 00:00:00        2.74                 13
    ##  3        3 May    2014 2014-05-16 00:00:00        3.45                 15
    ##  4        4 May    2014 2014-05-17 00:00:00        3.1                  15
    ##  5        5 May    2014 2014-05-17 00:00:00        4.06                 18
    ##  6        6 May    2014 2014-05-20 00:00:00        2.71                 13
    ##  7        7 May    2014 2014-05-21 00:00:00        1.91                  8
    ##  8        8 May    2014 2014-05-28 00:00:00        3.7                  16
    ##  9        9 June   2014 2014-06-05 00:00:00        2.52                 14
    ## 10       10 June   2014 2014-06-11 00:00:00        3.76                 18
    ## # ℹ 1,026 more rows
    ## # ℹ 9 more variables: plastic_bottles <dbl>, polystyrene <dbl>,
    ## #   cigarette_butts <dbl>, glass_bottles <dbl>, plastic_bags <dbl>,
    ## #   wrappers <dbl>, sports_balls <int>, homes_powered <dbl>, source <chr>
…
``` r
best_bakers_df = full_dt |>
  filter(series >= 5 & 
         series <= 10 & 
         result %in% c("STAR BAKER", "WINNER")) |>
  select(series, episode, first_name, last_name, result) |>
  distinct(series, episode, result, .keep_all = TRUE)
best_bakers_df
```

    ## # A tibble: 60 × 5
    ##    series episode first_name last_name   result    
    ##     <dbl>   <dbl> <chr>      <chr>       <chr>     
    ##  1      5       1 Nancy      Birtwhistle STAR BAKER
    ##  2      5       2 Richard    Burr        STAR BAKER
    ##  3      5       3 Luis       Troyano     STAR BAKER
    ##  4      5       4 Richard    Burr        STAR BAKER
    ##  5      5       5 Kate       Henry       STAR BAKER
    ##  6      5       6 Chetna     Makan       STAR BAKER
    ##  7      5       7 Richard    Burr        STAR BAKER
    ##  8      5       8 Richard    Burr        STAR BAKER
    ##  9      5       9 Richard    Burr        STAR BAKER
    ## 10      5      10 Nancy      Birtwhistle WINNER    
    ## # ℹ 50 more rows
…
